{
  "meta": {
    "total_count": 2113
  },
  "next_page": "/api/v2/latest?paginate=12&tags=android%2Carcore%2Cblocks%2Ccalendar%2Ccardboard%2Cchrome%2Cchromebooks%2Cdaydream%2Cdrive%2Cg-suite%2Cgmail%2Cgoogle-assistant%2Cgoogle-cloud%2Cgoogle-earth%2Cgoogle-earth-vr%2Cgoogle-expeditions%2Cgoogle-home%2Cgoogle-lens%2Cgoogle-play%2Cjump%2Cmaps%2Cphotos%2Cpixel%2Cpoly%2Csearch%2Ctilt-brush%2Ctour-creator%2Ctranslate%2Cvr180%2Cwear-os-by-google%2Cwebvr%2Cyoutube&cursor=2",
  "results": [
    {
      "url": "/products/gmail/stay-connected-more-easily-with-meet-in-gmail-on-mobile/",
      "sitespace_render": "",
      "published": "2020-06-16T16:00:00Z",
      "tag": "gmail",
      "sitespace": "",
      "page_id": 39295,
      "headline": "Stay connected more easily with Meet in Gmail on mobile",
      "eyebrow": "<time class=\"uni-timesince\" datetime=\"2020-06-16 16:00:00+00:00\">Jun 16</time> / Gmail",
      "category": "article",
      "published_node": "<time class=\"uni-timesince\" datetime=\"2020-06-16 16:00:00+00:00\">Jun 16</time>",
      "hero": "https://storage.googleapis.com/gweb-uniblog-publish-prod/original_images/Meet_In_Gmail_Mobile_Blog_Header.gif"
    },
    {
      "url": "/products/g-suite/5-tips-docs-sheets-slides/",
      "sitespace_render": "",
      "published": "2020-06-11T16:00:00Z",
      "tag": "g-suite",
      "sitespace": "",
      "page_id": 39273,
      "headline": "5 tips to brush up on your Docs, Sheets and Slides skills",
      "eyebrow": "<time class=\"uni-timesince\" datetime=\"2020-06-11 16:00:00+00:00\">Jun 11</time> / G Suite",
      "category": "article",
      "published_node": "<time class=\"uni-timesince\" datetime=\"2020-06-11 16:00:00+00:00\">Jun 11</time>",
      "hero": "https://storage.googleapis.com/gweb-uniblog-publish-prod/images/GSuite.max-300x300.jpg"
    },
    {
      "url": "/products/assistant/bringing-google-assistant-features-all-smart-devices/",
      "sitespace_render": "",
      "published": "2020-06-11T16:00:00Z",
      "tag": "google-assistant",
      "sitespace": "",
      "page_id": 39282,
      "headline": "Bringing Google Assistant features to all smart devices",
      "eyebrow": "<time class=\"uni-timesince\" datetime=\"2020-06-11 16:00:00+00:00\">Jun 11</time> / Google Assistant",
      "category": "article",
      "published_node": "<time class=\"uni-timesince\" datetime=\"2020-06-11 16:00:00+00:00\">Jun 11</time>",
      "hero": "https://storage.googleapis.com/gweb-uniblog-publish-prod/images/hero_blog_homeapp_181008_v1.max-1300x1300.max-300x300.jpg"
    },
    {
      "url": "/products/android/android-11-beta/",
      "sitespace_render": "",
      "published": "2020-06-10T17:00:00Z",
      "tag": "android",
      "sitespace": "",
      "page_id": 39278,
      "headline": "Android 11 Beta is available today",
      "eyebrow": "<time class=\"uni-timesince\" datetime=\"2020-06-10 17:00:00+00:00\">Jun 10</time> / Android",
      "category": "article",
      "published_node": "<time class=\"uni-timesince\" datetime=\"2020-06-10 17:00:00+00:00\">Jun 10</time>",
      "hero": "https://storage.googleapis.com/gweb-uniblog-publish-prod/images/ASL_A11_Beta_Hero_2880x1200.max-300x300.jpg"
    },
    {
      "url": "/products/google-cloud/cloud-covered-what-was-new-in-google-cloud-in-may-2020/",
      "sitespace_render": "",
      "published": "2020-06-10T17:00:00Z",
      "tag": "google-cloud",
      "sitespace": "",
      "page_id": 39280,
      "headline": "Cloud Covered: What was new in Google Cloud in May",
      "eyebrow": "<time class=\"uni-timesince\" datetime=\"2020-06-10 17:00:00+00:00\">Jun 10</time> / Google Cloud",
      "category": "article",
      "published_node": "<time class=\"uni-timesince\" datetime=\"2020-06-10 17:00:00+00:00\">Jun 10</time>",
      "hero": "https://storage.googleapis.com/gweb-uniblog-publish-prod/images/GCP_CloudCovered_3.max-300x300.jpg"
    },
    {
      "url": "/products/search/how-we-keep-spam-out-of-search/",
      "sitespace_render": "",
      "published": "2020-06-09T18:00:00Z",
      "tag": "search",
      "sitespace": "",
      "page_id": 39271,
      "headline": "Why keeping spam out of Search is so important",
      "eyebrow": "<time class=\"uni-timesince\" datetime=\"2020-06-09 18:00:00+00:00\">Jun 09</time> / Search",
      "category": "article",
      "published_node": "<time class=\"uni-timesince\" datetime=\"2020-06-09 18:00:00+00:00\">Jun 09</time>",
      "hero": null
    },
    {
      "url": "/products/maps/get-around-safely-these-new-google-maps-features/",
      "sitespace_render": "",
      "published": "2020-06-08T15:00:00Z",
      "tag": "maps",
      "sitespace": "",
      "page_id": 39270,
      "headline": "Get around safely with these new Google Maps features",
      "eyebrow": "<time class=\"uni-timesince\" datetime=\"2020-06-08 15:00:00+00:00\">Jun 08</time> / Maps",
      "category": "article",
      "published_node": "<time class=\"uni-timesince\" datetime=\"2020-06-08 15:00:00+00:00\">Jun 08</time>",
      "hero": null
    },
    {
      "url": "/products/youtube/sundar-pichai-message-class-2020/",
      "sitespace_render": "",
      "published": "2020-06-07T20:53:00Z",
      "tag": "youtube",
      "sitespace": "",
      "page_id": 39269,
      "headline": "You Will Prevail - A message to the Class of 2020",
      "eyebrow": "<time class=\"uni-timesince\" datetime=\"2020-06-07 20:53:00+00:00\">Jun 07</time> / YouTube",
      "category": "article",
      "published_node": "<time class=\"uni-timesince\" datetime=\"2020-06-07 20:53:00+00:00\">Jun 07</time>",
      "hero": "https://storage.googleapis.com/gweb-uniblog-publish-prod/images/YouTube_DearClassof2020_SundarPichai-hero_v2.max-300x300.png"
    },
    {
      "url": "/outreach-initiatives/digital-wellbeing/improve-your-sleep/",
      "sitespace_render": "",
      "published": "2020-06-01T17:00:00Z",
      "tag": "digital-wellbeing",
      "sitespace": "",
      "page_id": 39258,
      "headline": "Bedtime tools to help improve your sleep",
      "eyebrow": "<time class=\"uni-timesince\" datetime=\"2020-06-01 17:00:00+00:00\">Jun 01</time> / Digital Wellbeing",
      "category": "article",
      "published_node": "<time class=\"uni-timesince\" datetime=\"2020-06-01 17:00:00+00:00\">Jun 01</time>",
      "hero": "https://storage.googleapis.com/gweb-uniblog-publish-prod/images/Android_Bedtime_Hero_Wide_001.max-300x300.png"
    },
    {
      "url": "/products/pixel/new-pixel-features-drop/",
      "sitespace_render": "",
      "published": "2020-06-01T17:00:00Z",
      "tag": "pixel",
      "sitespace": "",
      "page_id": 39262,
      "headline": "New Pixel features for better sleep and personal safety",
      "eyebrow": "<time class=\"uni-timesince\" datetime=\"2020-06-01 17:00:00+00:00\">Jun 01</time> / Pixel",
      "category": "article",
      "published_node": "<time class=\"uni-timesince\" datetime=\"2020-06-01 17:00:00+00:00\">Jun 01</time>",
      "hero": "https://storage.googleapis.com/gweb-uniblog-publish-prod/images/FeatureDrops_Intro_R4.max-300x300.jpg"
    },
    {
      "url": "/products/youtube/pop-up-magazine-digital-show/",
      "sitespace_render": "",
      "published": "2020-05-28T17:00:00Z",
      "tag": "youtube",
      "sitespace": "",
      "page_id": 39255,
      "headline": "A live magazine pops up in your home, wherever you are",
      "eyebrow": "<time class=\"uni-timesince\" datetime=\"2020-05-28 17:00:00+00:00\">May 28</time> / YouTube",
      "category": "article",
      "published_node": "<time class=\"uni-timesince\" datetime=\"2020-05-28 17:00:00+00:00\">May 28</time>",
      "hero": "https://storage.googleapis.com/gweb-uniblog-publish-prod/images/Screen_Shot_2020-05-28_at_8.37.35_AM_fYySP6G.max-300x300.png"
    },
    {
      "url": "/products/maps/an-address-for-everywhere-plus-codes/",
      "sitespace_render": "",
      "published": "2020-05-28T16:00:00Z",
      "tag": "maps",
      "sitespace": "",
      "page_id": 39251,
      "headline": "No address? No problem. Share your location using Plus Codes",
      "eyebrow": "<time class=\"uni-timesince\" datetime=\"2020-05-28 16:00:00+00:00\">May 28</time> / Maps",
      "category": "article",
      "published_node": "<time class=\"uni-timesince\" datetime=\"2020-05-28 16:00:00+00:00\">May 28</time>",
      "hero": null
    }
  ]
}
